<?xml version="1.0" encoding="utf-8"?>
<!-- Generator: Adobe Illustrator 23.0.2, SVG Export Plug-In . SVG Version: 6.00 Build 0)  -->
<svg version="1.1" id="Capa_9" xmlns="http://www.w3.org/2000/svg" xmlns:xlink="http://www.w3.org/1999/xlink" x="0px" y="0px"
	 viewBox="0 0 512 512" style="enable-background:new 0 0 512 512;" xml:space="preserve">
<style type="text/css">
	.st0{fill:#D69936;}
	.st1{fill:#F4B13B;}
	.st2{fill:#E8222D;}
	.st3{fill:#6D6D6D;}
	.st4{fill:#AABECE;}
</style>
<g>
	<path class="st0" d="M62.7,93.7h38.7v15.5H62.7V93.7z"/>
	<path class="st0" d="M62.7,62.8h23.2v15.5H62.7V62.8z"/>
	<path class="st1" d="M163.2,217.5h23.2V233h-23.2V217.5z"/>
	<path class="st1" d="M147.7,186.5h38.7V202h-38.7V186.5z"/>
	<path class="st2" d="M217.3,287.1h69.6V318h-69.6L217.3,287.1L217.3,287.1z"/>
	<path class="st2" d="M217.3,348.9h69.6v30.9h-69.6L217.3,348.9L217.3,348.9z"/>
	<path class="st2" d="M217.3,410.8h69.6v30.9h-69.6L217.3,410.8L217.3,410.8z"/>
	<path class="st2" d="M387.5,387.6h92.8v92.8h-92.8V387.6z"/>
	<path class="st2" d="M62.7,387.6h116v92.8h-116C62.7,480.4,62.7,387.6,62.7,387.6z"/>
	<polygon class="st2" points="122,64.8 122,33.1 64.2,33.1 64.2,310.6 188.5,268.3 188.5,64.8 	"/>
	<g>
		<path class="st3" d="M379.4,348.9h15.5v15.5h-15.5V348.9z"/>
		<path class="st3" d="M410.3,348.9h15.5v15.5h-15.5V348.9z"/>
		<path class="st3" d="M441.2,348.9h15.5v15.5h-15.5V348.9z"/>
		<path class="st3" d="M54.9,348.9h15.5v15.5H54.9V348.9z"/>
		<path class="st3" d="M147.8,348.9h15.5v15.5h-15.5V348.9z"/>
	</g>
	<path class="st4" d="M433.9,62.8c-9.8,0-19.4-3.1-27.3-8.9c-11.2-8.7-27-8.7-38.2,0c-16.3,11.9-38.3,11.9-54.6,0
		c-11.2-8.7-27-8.7-38.2,0c-16.3,11.9-38.3,11.9-54.6,0c-5.5-4.2-12.2-6.5-19.1-6.6V31.9c9.8,0,19.4,3.1,27.3,8.9
		c5.5,4.2,12.2,6.5,19.1,6.6c6.9-0.1,13.6-2.4,19.1-6.6c16.3-11.9,38.3-11.9,54.6,0c11.2,8.7,27,8.7,38.2,0
		c16.3-11.9,38.3-11.9,54.6,0c5.5,4.2,12.2,6.5,19.1,6.6V62.8z"/>
	<path class="st4" d="M457.1,109.2c-9.8,0-19.4-3.1-27.3-8.9c-11.2-8.7-27-8.7-38.2,0c-16.3,11.9-38.3,11.9-54.6,0
		c-11.2-8.7-27-8.7-38.2,0c-16.3,11.9-38.3,11.9-54.6,0c-5.5-4.2-12.2-6.5-19.1-6.6V78.3c9.8,0,19.4,3.1,27.3,8.9
		c11.2,8.7,27,8.7,38.2,0c16.3-11.9,38.3-11.9,54.6,0c11.2,8.7,27,8.7,38.2,0c16.3-11.9,38.3-11.9,54.6,0c5.5,4.2,12.2,6.5,19.1,6.6
		V109.2z"/>
	<path class="st3" d="M379.4,348.9h15.5v15.5h-15.5V348.9z"/>
	<path class="st3" d="M410.3,348.9h15.5v15.5h-15.5V348.9z"/>
	<path class="st3" d="M441.2,348.9h15.5v15.5h-15.5V348.9z"/>
	<path class="st3" d="M54.9,348.9h15.5v15.5H54.9V348.9z"/>
	<path class="st3" d="M77.9,348.9h15.5v15.5H77.9V348.9z"/>
	<path class="st3" d="M101.2,348.9h15.5v15.5h-15.5V348.9z"/>
	<path class="st3" d="M124.4,348.9h15.5v15.5h-15.5C124.4,364.4,124.4,348.9,124.4,348.9z"/>
	<path class="st3" d="M171,348.9h15.5v15.5H171V348.9z"/>
	<path class="st3" d="M248.3,62.8c9.8,0,19.4-3.1,27.3-8.9c11.2-8.7,27-8.7,38.2,0c16.3,11.9,38.3,11.9,54.6,0
		c11.2-8.7,27-8.7,38.2,0c7.9,5.8,17.5,8.9,27.3,8.9V47.3c-6.9-0.1-13.6-2.4-19.1-6.6c-16.3-11.9-38.3-11.9-54.6,0
		c-11.2,8.7-27,8.7-38.2,0c-16.3-11.9-38.3-11.9-54.6,0c-5.5,4.2-12.2,6.5-19.1,6.6c-6.9-0.1-13.6-2.4-19.1-6.6
		c-7.9-5.8-17.5-8.9-27.3-8.9v15.5c6.9,0.1,13.6,2.4,19.1,6.6C228.9,59.7,238.5,62.8,248.3,62.8z"/>
	<path class="st3" d="M383.4,87.2c-11.2,8.7-27,8.7-38.2,0c-16.3-11.9-38.3-11.9-54.6,0c-11.2,8.7-27,8.7-38.2,0
		c-7.9-5.8-17.5-8.9-27.3-8.9v15.5c6.9,0.1,13.6,2.4,19.1,6.6c16.3,11.9,38.3,11.9,54.6,0c11.2-8.7,27-8.7,38.2,0
		c16.3,11.9,38.3,11.9,54.6,0c11.2-8.7,27-8.7,38.2,0c7.9,5.8,17.5,8.9,27.3,8.9V93.7c-6.9-0.1-13.6-2.4-19.1-6.6
		C421.7,75.3,399.6,75.3,383.4,87.2z"/>
</g>
<rect x="23.9" y="476.7" class="st3" width="464.2" height="11.5"/>
<path class="st3" d="M483.9,257l-116-61.9c-1.1-0.6-2.4-0.9-3.6-0.9h-147c-1.4,0.2-2.8,0.6-4.1,1.2c-2.2,1.4-3.6,3.9-3.6,6.5v56.3
	l-15.5,5.2V62.8c0-0.1,0-0.1,0-0.2v-8.2h-61.9V31.9l0,0v-9.4H54.9v13.4l0,0V310l-25.6,8.5c-3.2,1.1-5.3,4-5.3,7.3v154.7
	c0,4.3,3.5,7.7,7.7,7.7h448.5c4.3,0,7.7-3.5,7.7-7.7V263.9C488,260.9,483.9,257,483.9,257z M178.7,202v15.5h-15.5V233h15.5v33.4
	l-46.4,16.1v-212h46.4v116h-30.9V202H178.7z M70.4,93.7V78.3h15.5V62.8H70.4V39.6h46.4V288l-46.4,16.1V109.2h30.9V93.7H70.4z
	 M170.9,472.7H70.4v-46.4h100.5V472.7z M170.9,410.8H70.4v-15.5h100.5V410.8z M209.6,472.7h-23.2v-92.9H54.9v92.9H39.5V331.3
	l170.1-56.7V472.7z M225.1,294.8h54.1v15.5h-54.1V294.8z M225.1,356.7h54.1v15.5h-54.1V356.7z M225.1,418.5h54.1V434h-54.1V418.5z
	 M341.1,472.7h-116v-23.2h69.7v-46.4h-69.7v-15.5h69.7v-46.4h-69.7v-15.5h69.7v-46.4h-69.7v-65.1l116,54.6L341.1,472.7L341.1,472.7z
	 M251.9,209.7h110.4l87,46.4h-98.8L251.9,209.7z M472.5,472.7h-77.3v-46.4h77.3V472.7z M472.5,410.8h-77.3v-15.5h77.3V410.8z
	 M472.5,379.9h-93.1v92.8h-22.9V271.6h116V379.9z"/>
</svg>
