<?xml version="1.0" encoding="utf-8"?>
<!-- Generator: Adobe Illustrator 23.0.6, SVG Export Plug-In . SVG Version: 6.00 Build 0)  -->
<svg version="1.1" id="Capa_1" xmlns="http://www.w3.org/2000/svg" xmlns:xlink="http://www.w3.org/1999/xlink" x="0px" y="0px"
	 viewBox="0 0 512 512" style="enable-background:new 0 0 512 512;" xml:space="preserve">
<style type="text/css">
	.st0{fill:#E8222D;}
	.st1{fill:#6D6D6D;}
</style>
<polygon class="st0" points="343.2,478.3 380.2,478.3 368.6,409.3 376.9,388.2 361.8,379.3 345.3,390.3 355.4,407.1 355.2,407.1 "/>
<path class="st1" d="M486.1,411.9c0-32.4-27.8-44.2-29-44.7v-0.1l-62.7-24.3v-13.3c10-7.9,16.6-19.2,18.7-32.3
	c4.9-0.5,9.4-2.5,13.2-5.8c5.4-4.5,8.2-11.2,8.2-18.1c0-5.6-2.3-11-5.6-15.3v-19.2c0-37.1-30.1-67.4-67.2-67.4s-67.2,30.2-67.2,67.4
	v19.8c-3.3,4.2-5.6,9.3-5.6,14.8c0,7,3,13.7,8.3,18.1c3.8,3.2,8.2,5.2,13.1,5.8c2,12.6,8.5,24.9,19.7,33.1v12.6l-62.7,24.3H267
	c-1.2,0.4-29.2,12.3-29.2,44.7l0.1,75.6h248L486.1,411.9z M402.7,360.3L388.4,389c0,0-4.3-3.1-16.4-11.7c11.4-14.2,12-14.9,17.9-22
	L402.7,360.3z M362.3,368.2L343.4,345v-7.6c6.7,2.2,12.9,3.2,19,3.2c6.5,0,13.2-1.3,18.8-3.4v7.9L362.3,368.2z M371.1,393.1l-3,4.3
	h-11.9l-3-4.3l9-6.3L371.1,393.1z M421.1,273.2c0,3.1-1.4,6-3.8,8c-1.1,1-1.8,1.6-4,2.1v-20.4C417.8,264.5,421.1,268.6,421.1,273.2z
	 M310,283.4c-2.1-0.5-2.8-1.2-4-2.1c-2.3-2-3.8-5-3.8-8c0-3.4,1.9-5.9,3.2-7.1c0,0,0.1,0,0.2-0.1c1.2-1.1,2.1-2,4.3-2.5V283.4z
	 M313.3,245.1c-1.3,1.2-2.2,2.9-2.7,4.5c-0.9,0.1-1.6,0.3-2.7,0.5v-11.4c0-29.8,24.1-54.1,53.9-54.1s53.9,24.2,53.9,54.1v11.1
	c0-0.1-1.3-0.3-2-0.3c-0.1-2.3-0.5-3.8-2.7-6.5c-2.1-2.5-5.8-6.3-14.2-15.5c-3.6-3.8-9.3-4.5-13.7-1.6c-18.2,11.9-40.5,18-61.3,16.6
	C318.5,242.1,315.5,243.1,313.3,245.1z M323.4,289.3v-33.5c12.2,0.5,25.2-1.2,37.5-5.1c9.6-3,18.9-7.2,27.4-12.6
	c2.5,2.7,4.5,4.7,6.1,6.5c0.1,0.1,0.2,0.2,0.3,0.3c0.5,0.7,1,1.2,1.6,1.8c1.8,2,3.9,3.4,3.9,4.3v38.2c0,21-16.8,38-37.7,38
	C339.4,327.3,323.4,309.5,323.4,289.3z M334.9,355.3l17.9,22c-7.7,5.4-15.5,11-16.4,11.7L322,360.3L334.9,355.3z M334.2,474.1h-39.8
	v-52.5c0-3.6-3-6.7-6.7-6.7c-3.6,0-6.7,3-6.7,6.7v52.5h-30v-62.2h0.1c0-23,19.7-31.8,20.9-32.3l37.2-14.3l16.4,32.6
	c1.8,3.6,5.6,5.9,9.6,5.9c3.6,0,5.9-1.8,7.4-2.7l3.2,5L334.2,474.1z M347.8,474.1l10.6-63.3h7.8l10.7,63.3H347.8z M473.3,474.1
	h-28.9v-52.4c0-3.6-3-6.7-6.7-6.7c-3.6,0-6.7,3-6.7,6.7v52.4h-40.8l-11.5-68.2l3.2-5c2.9,2,5.6,3.4,9.9,2.5c3-0.8,5.6-2.7,7-5.6
	l16.4-32.6l37.2,14.3c1,0.4,20.9,9.2,20.9,32.3L473.3,474.1L473.3,474.1L473.3,474.1z"/>
<path class="st0" d="M263.8,357.6l1.6-0.5l48.8-18.9c1.6-1.3,3.2-2.7,4.8-4.1c-8.2-7.7-14.2-17.5-17.2-28.7c-3.1-1.1-6-2.6-8.6-4.5
	c-23.3,21.4-54.4,34.5-88.5,34.5c-72.2,0-130.8-58.5-130.8-130.7S132.4,73.9,204.7,73.9c59.5,0,109.7,39.8,125.5,94.1
	c9.6-4.3,20.3-6.7,31.5-6.7c3.5,0,7,0.3,10.4,0.7C353,87.2,285.3,32,204.7,32C109.3,32,32,109.3,32,204.7s77.3,172.7,172.7,172.7
	c12.9,0,25.4-1.4,37.4-4.1C252.1,362.1,263.6,357.7,263.8,357.6z"/>
<path class="st1" d="M290.7,299c-0.7-0.6-1.5-1.3-2.1-2c-22.2,20.2-51.7,32.5-83.9,32.5c-68.8,0-124.8-56-124.8-124.8
	s56-124.8,124.8-124.8c57,0,105.3,38.5,120.1,90.8c3.5-1.9,7.2-3.6,11-4.9c-16.8-56.5-69.2-97.8-131.1-97.8
	c-75.4,0-136.7,61.4-136.7,136.7c0,75.4,61.4,136.7,136.7,136.7c36.3,0,69.4-14.2,93.9-37.4C295.8,302.7,293.1,301,290.7,299z"/>
<polygon class="st1" points="255.2,127.1 204.7,177.6 154.1,127.1 127.1,154.1 177.6,204.7 127.1,255.2 154.1,282.2 204.7,231.7 
	255.2,282.2 282.2,255.2 231.7,204.7 282.2,154.1 "/>
<g>
	<path class="st1" d="M251.5,364.8c-14.8,4.3-30.5,6.7-46.8,6.7c-92,0-166.8-74.8-166.8-166.8S112.7,37.9,204.7,37.9
		c77,0,142,52.4,161.1,123.5c4.3,0.2,8.6,0.8,12.7,1.8C359.7,84.6,288.9,26,204.7,26C106.2,26,26,106.2,26,204.7
		s80.2,178.7,178.7,178.7c10.9,0,21.6-1,32-2.9C241.1,373.5,246.6,368.4,251.5,364.8z"/>
</g>
</svg>
